\relax 
\providecommand\hyper@newdestlabel[2]{}
\providecommand\HyperFirstAtBeginDocument{\AtBeginDocument}
\HyperFirstAtBeginDocument{\ifx\hyper@anchor\@undefined
\global\let\oldcontentsline\contentsline
\gdef\contentsline#1#2#3#4{\oldcontentsline{#1}{#2}{#3}}
\global\let\oldnewlabel\newlabel
\gdef\newlabel#1#2{\newlabelxx{#1}#2}
\gdef\newlabelxx#1#2#3#4#5#6{\oldnewlabel{#1}{{#2}{#3}}}
\AtEndDocument{\ifx\hyper@anchor\@undefined
\let\contentsline\oldcontentsline
\let\newlabel\oldnewlabel
\fi}
\fi}
\global\let\hyper@last\relax 
\gdef\HyperFirstAtBeginDocument#1{#1}
\providecommand\HyField@AuxAddToFields[1]{}
\providecommand\HyField@AuxAddToCoFields[2]{}
\catcode `"\active 
\catcode `<\active 
\catcode `>\active 
\@nameuse{es@quoting}
\babel@aux{spanish}{}
\@writefile{toc}{\contentsline {section}{\numberline {1}Introducci\'on}{2}{section.1}}
\@writefile{toc}{\contentsline {section}{\numberline {2}Investigaci\'on sobre cultivo de plantas de interior}{2}{section.2}}
\@writefile{toc}{\contentsline {subsection}{\numberline {2.1}Factores ambientales}{2}{subsection.2.1}}
\@writefile{toc}{\contentsline {subsection}{\numberline {2.2}Nutrientes}{3}{subsection.2.2}}
\@writefile{toc}{\contentsline {subsection}{\numberline {2.3}Irrigaci\'on}{3}{subsection.2.3}}
\@writefile{toc}{\contentsline {section}{\numberline {3}Problemas a resolver}{4}{section.3}}
\@writefile{toc}{\contentsline {section}{\numberline {4}Arquitectura del sistema}{5}{section.4}}
\@writefile{toc}{\contentsline {subsection}{\numberline {4.1}Descripci\'on general}{5}{subsection.4.1}}
\@writefile{lof}{\contentsline {figure}{\numberline {1}{\ignorespaces Ejemplo estructura b\'asica.}}{5}{figure.1}}
\@writefile{toc}{\contentsline {subsection}{\numberline {4.2}Descripci\'on del Hardware}{6}{subsection.4.2}}
\@writefile{toc}{\contentsline {subsection}{\numberline {4.3}Descripci\'on del software}{7}{subsection.4.3}}
\@writefile{lof}{\contentsline {figure}{\numberline {2}{\ignorespaces Estructura del software.}}{7}{figure.2}}
\@writefile{lof}{\contentsline {figure}{\numberline {3}{\ignorespaces Estructura de la aplicaci\'on web.}}{8}{figure.3}}
